ego_left:
(510 1070) (540 1060) (550 1050) (560 1040) (560 1030) (580 1020) (590 1010) (600 1000) (590 990) (600 980) (610 970) (630 960) (640 950) (660 940) (670 930) 
ego_right:
(1470 1070) (1430 1060) (1420 1050) (1400 1040) (1390 1030) (1370 1020) (1360 1010) (1350 1000) (1350 990) (1340 980) (1330 970) (1310 960) (1300 950) (1280 940) (1270 930) 
