ego_left:
(510 1070) (540 1060) (550 1050) (560 1040) (560 1030) (580 1020) (590 1010) (600 1000) (600 990) (610 980) (620 970) (630 960) (650 950) (670 940) 
ego_right:
(1460 1070) (1430 1060) (1420 1050) (1400 1040) (1390 1030) (1380 1020) (1360 1010) (1350 1000) (1350 990) (1340 980) (1330 970) (1310 960) (1300 950) (1290 940) 
