ego_left:
(500 1070) (550 1060) (560 1050) (560 1040) (570 1030) (580 1020) (590 1010) (590 1000) (600 990) (610 980) (620 970) (630 960) (640 950) (650 940) (660 930) (670 920) (680 910) (690 900) (700 890) (710 880) 
ego_right:
(1470 1070) (1430 1060) (1410 1050) (1400 1040) (1390 1030) (1380 1020) (1370 1010) (1360 1000) (1350 990) (1340 980) (1330 970) (1320 960) (1310 950) (1310 940) (1280 930) (1280 920) (1280 910) (1270 900) (1250 890) (1240 880) 
