ego_left:
(520 1070) (540 1060) (550 1050) (560 1040) (570 1030) (580 1020) (590 1010) (600 1000) (600 990) (610 980) (620 970) (640 960) (650 950) (660 940) (680 930) 
ego_right:
(1470 1070) (1430 1060) (1420 1050) (1410 1040) (1390 1030) (1380 1020) (1370 1010) (1360 1000) (1350 990) (1340 980) (1330 970) (1320 960) (1310 950) (1290 940) (1280 930) 
